<mxfile host="app.diagrams.net" modified="2023-10-10T17:55:56.469Z" agent="Mozilla/5.0 (Windows NT 10.0; Win64; x64) AppleWebKit/537.36 (KHTML, like Gecko) Chrome/117.0.0.0 Safari/537.36" etag="Gml2q9GF3oXuBAG3Edkw" version="21.7.2" type="gitlab">
  <diagram id="R2lEEEUBdFMjLlhIrx00" name="Page-1">
    <mxGraphModel dx="1888" dy="3360" grid="0" gridSize="10" guides="1" tooltips="1" connect="1" arrows="1" fold="1" page="0" pageScale="1" pageWidth="850" pageHeight="1100" math="0" shadow="0" extFonts="Permanent Marker^https://fonts.googleapis.com/css?family=Permanent+Marker">
      <root>
        <mxCell id="0" />
        <mxCell id="1" parent="0" />
        <mxCell id="-rzGAMs_kNatS00Ol4W_-1" value="Start" style="ellipse;whiteSpace=wrap;html=1;" vertex="1" parent="1">
          <mxGeometry x="751" y="-165" width="120" height="80" as="geometry" />
        </mxCell>
        <mxCell id="-rzGAMs_kNatS00Ol4W_-2" value="" style="endArrow=classic;html=1;rounded=0;exitX=0.545;exitY=0.988;exitDx=0;exitDy=0;exitPerimeter=0;" edge="1" parent="1" source="-rzGAMs_kNatS00Ol4W_-1" target="-rzGAMs_kNatS00Ol4W_-3">
          <mxGeometry width="50" height="50" relative="1" as="geometry">
            <mxPoint x="745" y="69" as="sourcePoint" />
            <mxPoint x="795" y="19" as="targetPoint" />
          </mxGeometry>
        </mxCell>
        <mxCell id="-rzGAMs_kNatS00Ol4W_-3" value="Registration Login or Sign up" style="rounded=0;whiteSpace=wrap;html=1;" vertex="1" parent="1">
          <mxGeometry x="756" y="-45" width="120" height="60" as="geometry" />
        </mxCell>
        <mxCell id="-rzGAMs_kNatS00Ol4W_-4" value="" style="endArrow=classic;html=1;rounded=0;exitX=0;exitY=0.5;exitDx=0;exitDy=0;" edge="1" parent="1" source="-rzGAMs_kNatS00Ol4W_-3" target="-rzGAMs_kNatS00Ol4W_-5">
          <mxGeometry width="50" height="50" relative="1" as="geometry">
            <mxPoint x="654" y="69" as="sourcePoint" />
            <mxPoint x="607" y="-15" as="targetPoint" />
          </mxGeometry>
        </mxCell>
        <mxCell id="-rzGAMs_kNatS00Ol4W_-6" value="Admin&amp;nbsp;&lt;br&gt;Login" style="edgeLabel;html=1;align=center;verticalAlign=middle;resizable=0;points=[];" vertex="1" connectable="0" parent="-rzGAMs_kNatS00Ol4W_-4">
          <mxGeometry x="0.0905" y="1" relative="1" as="geometry">
            <mxPoint as="offset" />
          </mxGeometry>
        </mxCell>
        <mxCell id="-rzGAMs_kNatS00Ol4W_-5" value="Admin Dashboard" style="rounded=0;whiteSpace=wrap;html=1;" vertex="1" parent="1">
          <mxGeometry x="446" y="-45" width="120" height="60" as="geometry" />
        </mxCell>
        <mxCell id="-rzGAMs_kNatS00Ol4W_-8" value="" style="endArrow=none;html=1;rounded=0;exitX=1;exitY=0.5;exitDx=0;exitDy=0;" edge="1" parent="1" source="-rzGAMs_kNatS00Ol4W_-3">
          <mxGeometry width="50" height="50" relative="1" as="geometry">
            <mxPoint x="993" y="54" as="sourcePoint" />
            <mxPoint x="1008" y="-15" as="targetPoint" />
          </mxGeometry>
        </mxCell>
        <mxCell id="-rzGAMs_kNatS00Ol4W_-10" value="User" style="text;html=1;strokeColor=none;fillColor=none;align=center;verticalAlign=middle;whiteSpace=wrap;rounded=0;" vertex="1" parent="1">
          <mxGeometry x="1001" y="-30" width="60" height="30" as="geometry" />
        </mxCell>
        <mxCell id="-rzGAMs_kNatS00Ol4W_-12" value="Home&amp;nbsp;&lt;br&gt;Page" style="rhombus;whiteSpace=wrap;html=1;" vertex="1" parent="1">
          <mxGeometry x="991" y="79" width="80" height="80" as="geometry" />
        </mxCell>
        <mxCell id="-rzGAMs_kNatS00Ol4W_-14" value="" style="endArrow=classic;html=1;rounded=0;exitX=0.5;exitY=1;exitDx=0;exitDy=0;entryX=0.5;entryY=0;entryDx=0;entryDy=0;" edge="1" parent="1" source="-rzGAMs_kNatS00Ol4W_-10" target="-rzGAMs_kNatS00Ol4W_-12">
          <mxGeometry width="50" height="50" relative="1" as="geometry">
            <mxPoint x="949" y="113" as="sourcePoint" />
            <mxPoint x="999" y="63" as="targetPoint" />
          </mxGeometry>
        </mxCell>
        <mxCell id="-rzGAMs_kNatS00Ol4W_-18" value="" style="endArrow=classic;html=1;rounded=0;exitX=0.5;exitY=1;exitDx=0;exitDy=0;" edge="1" parent="1" source="-rzGAMs_kNatS00Ol4W_-12" target="-rzGAMs_kNatS00Ol4W_-20">
          <mxGeometry width="50" height="50" relative="1" as="geometry">
            <mxPoint x="949" y="267" as="sourcePoint" />
            <mxPoint x="1031" y="246" as="targetPoint" />
          </mxGeometry>
        </mxCell>
        <mxCell id="-rzGAMs_kNatS00Ol4W_-19" value="View" style="edgeLabel;html=1;align=center;verticalAlign=middle;resizable=0;points=[];" vertex="1" connectable="0" parent="-rzGAMs_kNatS00Ol4W_-18">
          <mxGeometry x="0.0139" y="1" relative="1" as="geometry">
            <mxPoint as="offset" />
          </mxGeometry>
        </mxCell>
        <mxCell id="-rzGAMs_kNatS00Ol4W_-20" value="Item Listing" style="rounded=0;whiteSpace=wrap;html=1;" vertex="1" parent="1">
          <mxGeometry x="971" y="251" width="120" height="60" as="geometry" />
        </mxCell>
        <mxCell id="-rzGAMs_kNatS00Ol4W_-21" value="" style="endArrow=classic;html=1;rounded=0;exitX=0;exitY=0.5;exitDx=0;exitDy=0;" edge="1" parent="1" source="-rzGAMs_kNatS00Ol4W_-20" target="-rzGAMs_kNatS00Ol4W_-22">
          <mxGeometry width="50" height="50" relative="1" as="geometry">
            <mxPoint x="897" y="267" as="sourcePoint" />
            <mxPoint x="857" y="277" as="targetPoint" />
          </mxGeometry>
        </mxCell>
        <mxCell id="-rzGAMs_kNatS00Ol4W_-23" value="Click on&lt;br&gt;Item" style="edgeLabel;html=1;align=center;verticalAlign=middle;resizable=0;points=[];" vertex="1" connectable="0" parent="-rzGAMs_kNatS00Ol4W_-21">
          <mxGeometry x="-0.1016" y="2" relative="1" as="geometry">
            <mxPoint as="offset" />
          </mxGeometry>
        </mxCell>
        <mxCell id="-rzGAMs_kNatS00Ol4W_-22" value="Item Details" style="rounded=0;whiteSpace=wrap;html=1;" vertex="1" parent="1">
          <mxGeometry x="698" y="251" width="120" height="60" as="geometry" />
        </mxCell>
        <mxCell id="-rzGAMs_kNatS00Ol4W_-24" value="" style="endArrow=classic;html=1;rounded=0;exitX=0.5;exitY=1;exitDx=0;exitDy=0;" edge="1" parent="1" source="-rzGAMs_kNatS00Ol4W_-5" target="-rzGAMs_kNatS00Ol4W_-25">
          <mxGeometry width="50" height="50" relative="1" as="geometry">
            <mxPoint x="511" y="120" as="sourcePoint" />
            <mxPoint x="506" y="74" as="targetPoint" />
          </mxGeometry>
        </mxCell>
        <mxCell id="-rzGAMs_kNatS00Ol4W_-25" value="Details Statistics and&amp;nbsp;&lt;br&gt;Details" style="rounded=0;whiteSpace=wrap;html=1;" vertex="1" parent="1">
          <mxGeometry x="446" y="79" width="120" height="60" as="geometry" />
        </mxCell>
        <mxCell id="-rzGAMs_kNatS00Ol4W_-27" value="Item Management" style="rounded=0;whiteSpace=wrap;html=1;" vertex="1" parent="1">
          <mxGeometry x="300" y="180" width="120" height="60" as="geometry" />
        </mxCell>
        <mxCell id="-rzGAMs_kNatS00Ol4W_-28" value="User Management" style="rounded=0;whiteSpace=wrap;html=1;" vertex="1" parent="1">
          <mxGeometry x="610" y="180" width="120" height="60" as="geometry" />
        </mxCell>
        <mxCell id="-rzGAMs_kNatS00Ol4W_-31" value="" style="endArrow=classic;html=1;rounded=0;entryX=0.5;entryY=0;entryDx=0;entryDy=0;" edge="1" parent="1" target="-rzGAMs_kNatS00Ol4W_-27">
          <mxGeometry width="50" height="50" relative="1" as="geometry">
            <mxPoint x="360" y="50" as="sourcePoint" />
            <mxPoint x="378" y="79" as="targetPoint" />
          </mxGeometry>
        </mxCell>
        <mxCell id="-rzGAMs_kNatS00Ol4W_-32" value="" style="endArrow=classic;html=1;rounded=0;entryX=0.5;entryY=0;entryDx=0;entryDy=0;" edge="1" parent="1" target="-rzGAMs_kNatS00Ol4W_-28">
          <mxGeometry width="50" height="50" relative="1" as="geometry">
            <mxPoint x="670" y="50" as="sourcePoint" />
            <mxPoint x="669.6800000000001" y="174" as="targetPoint" />
          </mxGeometry>
        </mxCell>
        <mxCell id="-rzGAMs_kNatS00Ol4W_-33" value="" style="endArrow=none;html=1;rounded=0;" edge="1" parent="1">
          <mxGeometry width="50" height="50" relative="1" as="geometry">
            <mxPoint x="360" y="50" as="sourcePoint" />
            <mxPoint x="669" y="50" as="targetPoint" />
          </mxGeometry>
        </mxCell>
        <mxCell id="-rzGAMs_kNatS00Ol4W_-34" value="" style="endArrow=classic;html=1;rounded=0;exitX=0.5;exitY=1;exitDx=0;exitDy=0;" edge="1" parent="1" source="-rzGAMs_kNatS00Ol4W_-22" target="-rzGAMs_kNatS00Ol4W_-35">
          <mxGeometry width="50" height="50" relative="1" as="geometry">
            <mxPoint x="860" y="383" as="sourcePoint" />
            <mxPoint x="758" y="494" as="targetPoint" />
          </mxGeometry>
        </mxCell>
        <mxCell id="-rzGAMs_kNatS00Ol4W_-36" value="Wants to&amp;nbsp;&lt;br&gt;Purchase" style="edgeLabel;html=1;align=center;verticalAlign=middle;resizable=0;points=[];" vertex="1" connectable="0" parent="-rzGAMs_kNatS00Ol4W_-34">
          <mxGeometry x="-0.1481" y="1" relative="1" as="geometry">
            <mxPoint as="offset" />
          </mxGeometry>
        </mxCell>
        <mxCell id="-rzGAMs_kNatS00Ol4W_-35" value="Chat Interface" style="rounded=0;whiteSpace=wrap;html=1;" vertex="1" parent="1">
          <mxGeometry x="698" y="482" width="120" height="60" as="geometry" />
        </mxCell>
        <mxCell id="-rzGAMs_kNatS00Ol4W_-37" value="" style="endArrow=classic;html=1;rounded=0;exitX=1;exitY=0.5;exitDx=0;exitDy=0;" edge="1" parent="1" source="-rzGAMs_kNatS00Ol4W_-35" target="-rzGAMs_kNatS00Ol4W_-38">
          <mxGeometry width="50" height="50" relative="1" as="geometry">
            <mxPoint x="924" y="535" as="sourcePoint" />
            <mxPoint x="1019" y="512" as="targetPoint" />
          </mxGeometry>
        </mxCell>
        <mxCell id="-rzGAMs_kNatS00Ol4W_-39" value="Initiate Contact&lt;br&gt;with Seller" style="edgeLabel;html=1;align=center;verticalAlign=middle;resizable=0;points=[];" vertex="1" connectable="0" parent="-rzGAMs_kNatS00Ol4W_-37">
          <mxGeometry x="-0.0838" y="1" relative="1" as="geometry">
            <mxPoint as="offset" />
          </mxGeometry>
        </mxCell>
        <mxCell id="-rzGAMs_kNatS00Ol4W_-38" value="Negotiate The Deal" style="rounded=0;whiteSpace=wrap;html=1;" vertex="1" parent="1">
          <mxGeometry x="985" y="482" width="120" height="60" as="geometry" />
        </mxCell>
        <mxCell id="-rzGAMs_kNatS00Ol4W_-40" value="" style="endArrow=classic;html=1;rounded=0;" edge="1" parent="1" target="-rzGAMs_kNatS00Ol4W_-41">
          <mxGeometry width="50" height="50" relative="1" as="geometry">
            <mxPoint x="1104" y="509" as="sourcePoint" />
            <mxPoint x="1267" y="511" as="targetPoint" />
          </mxGeometry>
        </mxCell>
        <mxCell id="-rzGAMs_kNatS00Ol4W_-42" value="Confirms&lt;br&gt;Deal" style="edgeLabel;html=1;align=center;verticalAlign=middle;resizable=0;points=[];" vertex="1" connectable="0" parent="-rzGAMs_kNatS00Ol4W_-40">
          <mxGeometry x="-0.0673" y="-2" relative="1" as="geometry">
            <mxPoint as="offset" />
          </mxGeometry>
        </mxCell>
        <mxCell id="-rzGAMs_kNatS00Ol4W_-41" value="Status Changed to&lt;br&gt;Sold" style="rounded=0;whiteSpace=wrap;html=1;" vertex="1" parent="1">
          <mxGeometry x="1248" y="478" width="120" height="60" as="geometry" />
        </mxCell>
        <mxCell id="-rzGAMs_kNatS00Ol4W_-43" value="" style="endArrow=classic;html=1;rounded=0;exitX=0.5;exitY=1;exitDx=0;exitDy=0;" edge="1" parent="1" source="-rzGAMs_kNatS00Ol4W_-41" target="-rzGAMs_kNatS00Ol4W_-44">
          <mxGeometry width="50" height="50" relative="1" as="geometry">
            <mxPoint x="1340" y="666" as="sourcePoint" />
            <mxPoint x="1305" y="717" as="targetPoint" />
          </mxGeometry>
        </mxCell>
        <mxCell id="-rzGAMs_kNatS00Ol4W_-45" value="Buyer and seller&amp;nbsp;&lt;br&gt;Coordinate Delivery&amp;nbsp;&lt;br&gt;and Transaction" style="edgeLabel;html=1;align=center;verticalAlign=middle;resizable=0;points=[];" vertex="1" connectable="0" parent="-rzGAMs_kNatS00Ol4W_-43">
          <mxGeometry x="-0.1366" y="-3" relative="1" as="geometry">
            <mxPoint as="offset" />
          </mxGeometry>
        </mxCell>
        <mxCell id="-rzGAMs_kNatS00Ol4W_-44" value="Confirm Delivery and&amp;nbsp;&lt;br&gt;Transaction" style="rounded=0;whiteSpace=wrap;html=1;" vertex="1" parent="1">
          <mxGeometry x="1243" y="709.9999999999998" width="120" height="60" as="geometry" />
        </mxCell>
        <mxCell id="-rzGAMs_kNatS00Ol4W_-46" value="" style="endArrow=classic;html=1;rounded=0;exitX=0;exitY=0.5;exitDx=0;exitDy=0;" edge="1" parent="1" source="-rzGAMs_kNatS00Ol4W_-44" target="-rzGAMs_kNatS00Ol4W_-47">
          <mxGeometry width="50" height="50" relative="1" as="geometry">
            <mxPoint x="1240" y="740" as="sourcePoint" />
            <mxPoint x="1141" y="740" as="targetPoint" />
          </mxGeometry>
        </mxCell>
        <mxCell id="-rzGAMs_kNatS00Ol4W_-47" value="End" style="ellipse;whiteSpace=wrap;html=1;aspect=fixed;" vertex="1" parent="1">
          <mxGeometry x="1050" y="700.0000000000002" width="80" height="80" as="geometry" />
        </mxCell>
        <mxCell id="-rzGAMs_kNatS00Ol4W_-48" value="" style="endArrow=classic;html=1;rounded=0;exitX=1;exitY=0.5;exitDx=0;exitDy=0;" edge="1" parent="1" source="-rzGAMs_kNatS00Ol4W_-12" target="-rzGAMs_kNatS00Ol4W_-49">
          <mxGeometry width="50" height="50" relative="1" as="geometry">
            <mxPoint x="1213" y="267" as="sourcePoint" />
            <mxPoint x="1189" y="119" as="targetPoint" />
          </mxGeometry>
        </mxCell>
        <mxCell id="-rzGAMs_kNatS00Ol4W_-50" value="Click Post" style="edgeLabel;html=1;align=center;verticalAlign=middle;resizable=0;points=[];" vertex="1" connectable="0" parent="-rzGAMs_kNatS00Ol4W_-48">
          <mxGeometry x="-0.25" y="-1" relative="1" as="geometry">
            <mxPoint x="-1" as="offset" />
          </mxGeometry>
        </mxCell>
        <mxCell id="-rzGAMs_kNatS00Ol4W_-49" value="Provide Item Details" style="rounded=0;whiteSpace=wrap;html=1;" vertex="1" parent="1">
          <mxGeometry x="1262" y="89" width="120" height="60" as="geometry" />
        </mxCell>
        <mxCell id="-rzGAMs_kNatS00Ol4W_-51" value="" style="endArrow=classic;html=1;rounded=0;exitX=0.5;exitY=1;exitDx=0;exitDy=0;" edge="1" parent="1" source="-rzGAMs_kNatS00Ol4W_-49" target="-rzGAMs_kNatS00Ol4W_-52">
          <mxGeometry width="50" height="50" relative="1" as="geometry">
            <mxPoint x="1189" y="267" as="sourcePoint" />
            <mxPoint x="1246" y="246" as="targetPoint" />
          </mxGeometry>
        </mxCell>
        <mxCell id="-rzGAMs_kNatS00Ol4W_-52" value="Upload Items" style="rounded=0;whiteSpace=wrap;html=1;" vertex="1" parent="1">
          <mxGeometry x="1262" y="251" width="120" height="60" as="geometry" />
        </mxCell>
        <mxCell id="-rzGAMs_kNatS00Ol4W_-53" value="" style="endArrow=classic;html=1;rounded=0;exitX=0;exitY=0.5;exitDx=0;exitDy=0;entryX=1;entryY=0.5;entryDx=0;entryDy=0;" edge="1" parent="1" source="-rzGAMs_kNatS00Ol4W_-52" target="-rzGAMs_kNatS00Ol4W_-20">
          <mxGeometry width="50" height="50" relative="1" as="geometry">
            <mxPoint x="1202" y="267" as="sourcePoint" />
            <mxPoint x="1252" y="217" as="targetPoint" />
          </mxGeometry>
        </mxCell>
        <mxCell id="-rzGAMs_kNatS00Ol4W_-54" value="Listed" style="edgeLabel;html=1;align=center;verticalAlign=middle;resizable=0;points=[];" vertex="1" connectable="0" parent="-rzGAMs_kNatS00Ol4W_-53">
          <mxGeometry x="0.1878" relative="1" as="geometry">
            <mxPoint as="offset" />
          </mxGeometry>
        </mxCell>
      </root>
    </mxGraphModel>
  </diagram>
</mxfile>
